<?xml version="1.0" encoding="utf-8"?>
<!-- Generator: Adobe Illustrator 21.0.2, SVG Export Plug-In . SVG Version: 6.00 Build 0)  -->
<svg version="1.1" id="Layer_1" xmlns="http://www.w3.org/2000/svg" xmlns:xlink="http://www.w3.org/1999/xlink" x="0px" y="0px"
	 viewBox="0 0 758 171" style="enable-background:new 0 0 758 171;" xml:space="preserve">
<style type="text/css">
	.st0{fill:#DD4814;}
</style>
<path class="st0" d="M379,40.2c-25,0-45.3,20.3-45.3,45.3c0,25,20.3,45.3,45.3,45.3s45.3-20.3,45.3-45.3
	C424.3,60.5,404,40.2,379,40.2z M389.2,55.8c1.7-2.9,5.4-3.9,8.3-2.2c2.9,1.7,3.9,5.4,2.2,8.3c-1.7,2.9-5.4,3.9-8.3,2.2
	C388.5,62.4,387.5,58.7,389.2,55.8z M379,59.2c2.4,0,4.8,0.3,7,1c0.4,2.4,1.8,4.7,4.1,6c2.3,1.3,5,1.5,7.3,0.6
	c4.5,4.4,7.4,10.4,7.8,17.1l-8.6,0.1c-0.8-9-8.4-16.1-17.6-16.1c-2.7,0-5.2,0.6-7.4,1.6l-4.2-7.5C370.9,60.2,374.8,59.2,379,59.2z
	 M348.2,91.6c-3.3,0-6.1-2.7-6.1-6.1c0-3.3,2.7-6.1,6.1-6.1c3.3,0,6.1,2.7,6.1,6.1C354.2,88.8,351.5,91.6,348.2,91.6z M353.5,92.1
	c1.9-1.6,3.1-3.9,3.1-6.6c0-2.7-1.2-5-3.1-6.6c1.6-6.3,5.6-11.7,10.9-15.3l4.4,7.4c-4.5,3.2-7.5,8.5-7.5,14.5c0,6,3,11.3,7.5,14.5
	l-4.4,7.4C359.1,103.8,355.2,98.4,353.5,92.1z M397.4,117.4c-2.9,1.7-6.6,0.7-8.3-2.2c-1.7-2.9-0.7-6.6,2.2-8.3
	c2.9-1.7,6.6-0.7,8.3,2.2C401.3,112.1,400.3,115.8,397.4,117.4z M397.4,104.2c-2.3-0.9-5-0.7-7.3,0.6c-2.3,1.3-3.7,3.6-4.1,6
	c-2.2,0.6-4.6,1-7,1c-4.2,0-8.1-1-11.7-2.7l4.2-7.5c2.3,1.1,4.8,1.6,7.4,1.6c9.2,0,16.8-7.1,17.6-16.1l8.6,0.1
	C404.8,93.9,401.9,99.8,397.4,104.2z"/>
</svg>
