<?xml version="1.0" encoding="UTF-8"?>
<svg width="158px" height="38px" viewBox="0 0 158 38" version="1.1" xmlns="http://www.w3.org/2000/svg" xmlns:xlink="http://www.w3.org/1999/xlink">
    <!-- Generator: Sketch 43.2 (39069) - http://www.bohemiancoding.com/sketch -->
    <title>packager-logo</title>
    <desc>Created with Sketch.</desc>
    <defs></defs>
    <g id="Desktop" stroke="none" stroke-width="1" fill="none" fill-rule="evenodd">
        <g id="installation-page-v5" transform="translate(-1056.000000, -1950.000000)" fill="#444444">
            <g id="One-click-install-providers" transform="translate(315.000000, 1837.000000)">
                <g id="packager.io" transform="translate(670.000000, 86.000000)">
                    <path d="M71,33.8827615 L75.1638873,33.8827615 L75.1638873,60.8184309 L79.8370944,60.8184309 L79.8370944,65 L71,65 L71,33.8827615 Z M107.749475,33.8827615 L111.912642,33.8827615 L111.912642,65 L103.076268,65 L103.076268,60.8184309 L107.749475,60.8184309 L107.749475,33.8827615 Z M95.5309873,27 L100.215721,27 L91.5443173,49.9381392 L82.8721936,27 L87.556927,27 L91.5443173,39.8775904 L95.5309873,27 Z M138.962997,46.8254621 C138.962997,47.5176244 138.849175,48.1525952 138.62225,48.7296415 C138.395325,49.3081542 138.055299,49.804546 137.601449,50.2202833 C137.1476,50.6360205 136.579928,50.9593717 135.899154,51.1903369 C135.21838,51.421302 134.420902,51.5371512 133.50672,51.5371512 L131.542201,51.5371512 L131.542201,56.5751245 L128.926444,56.5751245 L128.926444,42.261884 L133.50672,42.261884 C134.446836,42.261884 135.260884,42.3740671 135.948141,42.5984332 C136.635399,42.8227994 137.20235,43.1366187 137.649716,43.539158 C138.097082,43.9416972 138.427743,44.4226913 138.641701,44.9843399 C138.855658,45.5452553 138.962997,46.1589627 138.962997,46.8254621 Z M136.171464,47.9186972 C136.288168,47.5924131 136.34652,47.2280014 136.34652,46.8254621 C136.34652,46.4427199 136.288168,46.0959055 136.171464,45.7857523 C136.05476,45.4755991 135.879703,45.2116389 135.646295,44.9938718 C135.412887,44.7761047 135.118245,44.6096631 134.761649,44.4938139 C134.404333,44.3779647 133.986504,44.3207734 133.50672,44.3207734 L131.542201,44.3207734 L131.542201,49.4584649 L133.50672,49.4584649 C133.986504,49.4584649 134.404333,49.3976074 134.761649,49.2751592 C135.118245,49.1534442 135.412887,48.9774708 135.646295,48.7501717 C135.879703,48.5228727 136.05476,48.2449813 136.171464,47.9186972 Z M143.649892,42.2615174 L146.324721,42.2615174 L151.848716,56.5747578 L149.825844,56.5747578 C149.59892,56.5747578 149.412337,56.5175665 149.266817,56.4024505 C149.120577,56.2866013 149.015399,56.1428897 148.950564,55.9713156 L147.900227,53.0508895 L142.075107,53.0508895 L141.02477,55.9713156 C140.972181,56.1230927 140.869885,56.2616717 140.717881,56.3870528 C140.565878,56.5124339 140.379295,56.5747578 140.158854,56.5747578 L138.125897,56.5747578 L143.649892,42.2615174 Z M142.745795,51.1701733 L147.228818,51.1701733 L145.517878,46.4093582 C145.439355,46.1981901 145.353628,45.9488944 145.259976,45.6614711 C145.165604,45.374781 145.073394,45.0631613 144.982624,44.7266121 C144.891854,45.0631613 144.802525,45.3762474 144.715357,45.6666036 C144.627469,45.9569598 144.541742,46.2113881 144.457455,46.4291553 L142.745795,51.1701733 Z M155.928172,45.7261413 C155.529794,46.1616756 155.218583,46.6910624 154.99454,47.3150349 C154.771217,47.9382742 154.659556,48.6399684 154.659556,49.4186509 C154.659556,50.2237294 154.771217,50.9393548 154.99454,51.5662602 C155.218583,52.1931656 155.521869,52.7210859 155.903679,53.1500212 C156.286209,53.5789565 156.737177,53.9074403 157.255862,54.1347393 C157.774547,54.3620384 158.332133,54.4764211 158.928621,54.4764211 C159.285217,54.4764211 159.607954,54.4566241 159.896112,54.4177633 C160.184991,54.377436 160.450096,54.3151121 160.69359,54.229325 C160.936364,54.1428048 161.16689,54.0328214 161.38445,53.8979084 C161.601289,53.7622622 161.817407,53.5958206 162.031365,53.3978505 C162.096201,53.3384595 162.163197,53.2900668 162.235237,53.2541388 C162.306556,53.2174777 162.384359,53.1991471 162.468645,53.1991471 C162.611284,53.1991471 162.734471,53.2556053 162.838208,53.3677884 L163.869095,54.5064832 C163.298541,55.2257747 162.596876,55.776425 161.763378,56.1591672 C160.9306,56.5419095 159.930691,56.7332806 158.76365,56.7332806 C157.719797,56.7332806 156.781121,56.5521746 155.947623,56.1892293 C155.114846,55.8255509 154.403095,55.3210937 153.813091,54.6743912 C153.223086,54.0276888 152.771398,53.2563385 152.456585,52.3581407 C152.141773,51.4606761 151.984726,50.4803573 151.984726,49.4186509 C151.984726,48.3422799 152.159782,47.3582951 152.509895,46.4637634 C152.860007,45.5699649 153.352758,44.7993478 153.988147,44.1526454 C154.623536,43.505943 155.383553,43.0029522 156.26892,42.6429398 C157.153566,42.2829275 158.131143,42.1032879 159.20093,42.1032879 C160.244063,42.1032879 161.157525,42.2733956 161.938434,42.6128777 C162.720063,42.953093 163.389311,43.404025 163.946897,43.9642072 L163.071616,45.2018871 C163.019748,45.2810751 162.953472,45.3499981 162.872067,45.4093891 C162.790662,45.4687801 162.679001,45.4988423 162.537083,45.4988423 C162.387961,45.4988423 162.235237,45.4394512 162.079632,45.3206692 C161.924026,45.2018871 161.726638,45.0728399 161.486746,44.9342608 C161.246854,44.7956817 160.943567,44.6673677 160.576886,44.5485857 C160.210205,44.4298036 159.745549,44.3704125 159.18148,44.3704125 C158.520156,44.3704125 157.912142,44.4877282 157.358158,44.7216262 C156.803453,44.9555243 156.326551,45.290607 155.928172,45.7261413 Z M172.490935,49.3199591 C172.662389,49.464404 172.829521,49.6499093 172.990889,49.8742755 L177.873731,56.5751978 L175.5591,56.5751978 C175.247889,56.5751978 175.015922,56.5304712 174.863918,56.4417512 C174.711194,56.3522981 174.582964,56.2217844 174.479947,56.0509435 L170.501202,50.765141 C170.372251,50.5928337 170.22601,50.4689191 170.063921,50.3933971 C169.901832,50.317142 169.672026,50.2797476 169.373782,50.2797476 L168.546768,50.2797476 L168.546768,56.5751978 L165.931011,56.5751978 L165.931011,42.2524254 L168.546768,42.2524254 L168.546768,48.2604523 L169.159825,48.2604523 C169.4062,48.2604523 169.610072,48.2252576 169.772161,48.1563347 C169.93425,48.0866785 170.074007,47.9759619 170.190711,47.824918 L174.070762,42.8258056 C174.232852,42.6146374 174.402865,42.4679929 174.580803,42.3851387 C174.759461,42.3030178 174.985665,42.2619573 175.257254,42.2619573 L177.513534,42.2619573 L172.776932,48.2098599 C172.62781,48.3953653 172.485171,48.5508085 172.349737,48.6761896 C172.212862,48.8008374 172.067342,48.9034886 171.911016,48.9834099 C172.125694,49.0618647 172.31876,49.1740478 172.490935,49.3199591 Z M183.582579,42.2615174 L186.256688,42.2615174 L191.780683,56.5747578 L189.757812,56.5747578 C189.530887,56.5747578 189.344304,56.5175665 189.198785,56.4024505 C189.053265,56.2866013 188.947366,56.1428897 188.882531,55.9713156 L187.832194,53.0508895 L182.006354,53.0508895 L180.956737,55.9713156 C180.904148,56.1230927 180.801852,56.2616717 180.650569,56.3870528 C180.497845,56.5124339 180.311262,56.5747578 180.090821,56.5747578 L178.058585,56.5747578 L183.582579,42.2615174 Z M182.677762,51.1701733 L187.160785,51.1701733 L185.449845,46.4093582 C185.371322,46.1981901 185.285595,45.9488944 185.191944,45.6614711 C185.097572,45.374781 185.005361,45.0631613 184.914591,44.7266121 C184.823821,45.0631613 184.734492,45.3762474 184.647324,45.6666036 C184.559436,45.9569598 184.473709,46.2113881 184.389423,46.4291553 L182.677762,51.1701733 Z M199.677445,50.9031336 L199.677445,49.3985606 L204.355694,49.3985606 L204.355694,55.1895535 C203.999099,55.4527805 203.627374,55.6830124 203.241963,55.8765832 C202.856551,56.0723536 202.445205,56.2321962 202.006484,56.3568441 C201.569204,56.4822251 201.101667,56.5760776 200.601712,56.6391348 C200.102478,56.7021919 199.564343,56.7329873 198.988026,56.7329873 C197.962903,56.7329873 197.019905,56.5518813 196.156871,56.1889361 C195.295277,55.8259908 194.549668,55.3208004 193.920762,54.6748312 C193.291857,54.0281287 192.800547,53.2560452 192.447553,52.3578474 C192.093839,51.461116 191.917342,50.4807973 191.917342,49.4190908 C191.917342,48.3427199 192.088796,47.3558021 192.432425,46.4583375 C192.776054,45.5608729 193.264482,44.7895226 193.896269,44.142087 C194.528776,43.4953846 195.295277,42.9938602 196.196492,42.6382472 C197.097708,42.281901 198.109143,42.1037279 199.230799,42.1037279 C200.37839,42.1037279 201.371815,42.2767684 202.211797,42.6235828 C203.051058,42.9696639 203.762809,43.4198626 204.345609,43.974179 L203.587753,45.1817968 C203.438631,45.4259599 203.240522,45.5476749 202.994147,45.5476749 C202.838541,45.5476749 202.679334,45.4956161 202.517245,45.3892988 C202.309771,45.2646509 202.097254,45.1392699 201.881135,45.0138888 C201.663576,44.8885077 201.423684,44.7792575 201.16146,44.6868715 C200.898515,44.5944854 200.603153,44.5189635 200.275373,44.4588392 C199.949034,44.4001814 199.571546,44.3701192 199.142911,44.3701192 C198.44917,44.3701192 197.821705,44.4889013 197.261237,44.7271987 C196.700049,44.9640296 196.221706,45.304245 195.826209,45.745645 C195.430712,46.1885116 195.126705,46.7193648 194.912747,47.3404044 C194.69879,47.9599776 194.591451,48.6536063 194.591451,49.4190908 C194.591451,50.2439663 194.705273,50.9779223 194.931478,51.6209586 C195.159123,52.2639949 195.476097,52.8073129 195.884561,53.248713 C196.293026,53.6915795 196.780013,54.0295952 197.344083,54.2642265 C197.907432,54.4973913 198.523371,54.6147069 199.191178,54.6147069 C199.781902,54.6147069 200.295544,54.5604484 200.733545,54.4519315 C201.170825,54.3426813 201.586493,54.1923706 201.981991,54.0017327 L201.981991,51.3987921 L200.222784,51.3987921 C200.053491,51.3987921 199.920938,51.3503994 199.823685,51.2543472 C199.726432,51.1590283 199.677445,51.0417127 199.677445,50.9031336 Z M206.796972,56.5748312 L206.796972,42.2615907 L215.666484,42.2615907 L215.666484,44.3798711 L209.432179,44.3798711 L209.432179,48.3495388 L214.343837,48.3495388 L214.343837,50.3981631 L209.432179,50.3981631 L209.432179,54.4477521 L215.666484,54.4477521 L215.666484,56.5748312 L206.796972,56.5748312 Z M225.479426,51.288882 L229,56.5746845 L226.646467,56.5746845 C226.419543,56.5746845 226.226476,56.5292247 226.067269,56.4368387 C225.908782,56.3444526 225.774068,56.2117393 225.663847,56.0408984 L222.707343,51.4582565 C222.597123,51.2859491 222.475376,51.1635009 222.342823,51.0916451 C222.20955,51.0190561 222.013602,50.9823949 221.75426,50.9823949 L220.636206,50.9823949 L220.636206,56.5746845 L218.020449,56.5746845 L218.020449,42.2614441 L222.309685,42.2614441 C223.268532,42.2614441 224.090503,42.3618956 224.774159,42.5635318 C225.458535,42.7651681 226.019002,43.0474588 226.456283,43.4096708 C226.894283,43.7733493 227.214859,44.2074171 227.419452,44.7118743 C227.624044,45.2163316 227.72562,45.7721144 227.72562,46.3792228 C227.72562,46.8616833 227.655742,47.3162814 227.516705,47.7452167 C227.377669,48.1748852 227.175958,48.5634932 226.913734,48.9132405 C226.65079,49.2637209 226.327332,49.5709412 225.9412,49.833435 C225.555068,50.0981284 225.116347,50.3092965 224.623596,50.4676726 C224.953537,50.6590437 225.239534,50.933269 225.479426,51.288882 Z M223.558131,48.8839116 C223.924812,48.7585305 224.226658,48.5854899 224.462948,48.3640567 C224.699958,48.1433566 224.876455,47.8815961 224.993159,47.5780419 C225.109863,47.2744877 225.168215,46.9408714 225.168215,46.5771929 C225.168215,45.8513024 224.933366,45.2940532 224.462948,44.9047119 C223.99325,44.5153707 223.274295,44.3203334 222.309685,44.3203334 L220.636206,44.3203334 L220.636206,49.0723498 L222.270063,49.0723498 C222.762814,49.0723498 223.19217,49.0092926 223.558131,48.8839116 Z" id="packager-logo"></path>
                </g>
            </g>
        </g>
    </g>
</svg>